# Created by Octave 5.1.0, Fri Nov 22 13:40:20 2019 GMT <unknown@syn0020>
# name: coeff
# type: matrix
# rows: 64
# columns: 8
 0.00078845889227397575 -0.00079440158204371653 -0.00080901078803257776 0.004700651430088968 0.0086420629877006737 0.004700651430088968 -0.00080901078803257776 -0.00079440158204371653
 0.00078793508106406347 -0.00082755818236368648 -0.00076100231935613994 0.004802671029922506 0.0086409229913659829 0.0045982356156919731 -0.00085535544953048426 -0.00076084876679421867
 0.00078636408532404157 -0.00086028358513907607 -0.00071133673555346289 0.0049042477699348915 0.008637503566687979 0.0044954702678693869 -0.0009000306140124687 -0.00072693475511129309
 0.0007837472184535196 -0.00089254286649114974 -0.00066002173089579289 0.0050053350671113439 0.0086318064063106922 0.0043924020773033166 -0.00094303159324828686 -0.00069269457854364723
 0.00078008666855355468 -0.00092430118414620684 -0.00060706600127214869 0.0051058864270533072 0.0086238343301938553 0.0042890777179272746 -0.00098435469940530451 -0.00065816325890433647
 0.00077538549707971156 -0.00095552380030431317 -0.00055247924298172386 0.0052058554703459598 0.0086135912839431471 0.0041855438206925997 -0.0010239972432394264 -0.00062337578553595802
 0.00076964763695737924 -0.00098617610449458493 -0.00049627215091906844 0.005305195958903608 0.0086010823364740842 0.0040818469474102545 -0.0010619575316891425 -0.00058836709264253493
 0.00076287789016035723 -0.0010162236364035374 -0.00043845641615160346 0.0054038618222765596 0.0085863136770110669 0.0039780335646840302 -0.0010982348648756386 -0.00055317203670123655
 0.00075508192475401501 -0.001045632108662993 -0.00037904472288941932 0.0055018071839031384 0.0085692926114235048 0.0038741500179511144 -0.0011328295325123384 -0.00051782537396702398
 0.00074626627140465893 -0.0010743674295840215 -0.00031805074484764944 0.0055989863872904378 0.008550027557901449 0.0037702425056458599 -0.0011657428097275285 -0.00048236173808321
 0.00073643831935694959 -0.0011023957258233987 -0.00025548914100210628 0.0056953540221075117 0.0085285280419735085 0.0036663570535024836 -0.0011969769523041067 -0.00044681561781084652
 0.00072560631188160448 -0.0011296833649690604 -0.00019137555073924753 0.0057908649501746279 0.0085048046908703274 0.0035625394890123146 -0.0012265351913408171 -0.00041122133488975452
 0.00071377934119582105 -0.0011561969780310389 -0.0001257265884018903 0.0058854743313323547 0.0084788692272372481 0.0034588354160510733 -0.0012544217273396715 -0.00037561302204390214
 0.00070096734285919268 -0.0011819034818243953 -5.8559837232503181e-05 0.0059791376491742116 0.0084507344622002933 0.0033552901896915211 -0.0012806417237245884 -0.00034002460114373583
 0.0006871810896481494 -0.0012067701012306868 1.0106157283745125e-05 0.0060718107366267574 0.0084204142877899492 0.0032519488912166666 -0.0013052012997966283 -0.00030448976153795587
 0.00067243218491227488 -0.0012307643913245321 8.0251894673617459e-05 0.0061634498013609764 0.0083879236687276742 0.0031488563033485644 -0.0013281075231314856 -0.00026904193856709343
 0.00065673305541607847 -0.0012538542593518848 0.00015185692732515516 0.0062540114510189855 0.0083532786335804993 0.003046056885707569 -0.0013493684014252694 -0.00023371429227113751
 0.00064009694367014478 -0.0012760079865466855 0.00022489986892844263 0.0063434527182401378 0.008316496265289422 0.0029435947505167112 -0.0013689928737948681 -0.00019853968630330864
 0.00062253789975580788 -0.0012971942497725908 0.00029935840350407716 0.0064317310854706987 0.0082775946910777984 0.0028415136385657033 -0.001386990801539541 -0.00016355066706195606
 0.00060407077264782458 -0.001317382142976583 0.00037520929501527397 0.0065188045095414242 0.0082365930717462326 0.0027398568954488649 -0.0014033729583706571 -0.00012877944305238415
 0.00058471120103975593 -0.0013365411984412861 0.00045242839755916262 0.0066046314459974539 0.0081935115903609638 0.0026386674480910529 -0.0014181510201168143 -9.4257864490292329e-05
 0.00056447560367706758 -0.001354641407822947 0.00053099066613244462 0.0066891708731650953 0.0081483714403430448 0.0025379877815754769 -0.0014313375539118517 -6.0017403158332447e-05
 0.00054338116920321644 -0.0013716532429620862 0.00061087016796623349 0.0067723823159402336 0.0081011948129660685 0.0024378599162870494 -0.0014429460068735753 -2.6089132527142987e-05
 0.00052144584552427011 -0.0013875476764539344 0.00069204009442451215 0.0068542258692832255 0.0080520048842705298 0.0023383253853846773 -0.0014529906942812604 7.4962918479762981e-06
 0.00049868832869787334 -0.0014022962019658808 0.00077447277346026676 0.0069346622214053379 0.0080008258014033096 0.0022394252126156978 -0.0014614867872603239 4.0708651643714877e-05
 0.00047512805135262138 -0.0014158708542892594 0.00085813968262303877 0.0070136526766319549 0.0079476826683911178 0.0021411998904853702 -0.0014684502999827561 7.3518184787906395e-05
 0.00045078517064419277 -0.0014282442291129139 0.00094301146261119729 0.0070911591779279862 0.0078926015313571241 0.0020436893587941086 -0.0014738980763922471 0.00010589560417054774
 0.00042568055575483051 -0.0014393895025061273 0.0010290579313619584 0.0071671443290710693 0.0078356093631903115 0.0019469329835548614 -0.0014778477764631173 0.00013781211603621098
 0.00039983577494302454 -0.0014492804500986166 0.001116248098671762 0.0072415714164584324 0.0077767340476774909 0.0018509695363027913 -0.0014803178620024773 0.00016923943804758948
 0.00037327308215050811 -0.0014578914659454381 0.0012045501813392899 0.0073144044305334327 0.0077160043631082182 0.0017558371738091117 -0.0014813275820052337 0.00020014981701010665
 0.00034601540317389995 -0.0014651975810648131 0.0012939316188230695 0.0073856080868180849 0.0076534499653632005 0.0016615734182106644 -0.0014808969575718319 0.00023051604624772315
 0.00031808632140863189 -0.0014711744816370176 0.0013843590894052271 0.0074551478465380685 0.007589101370497107 0.001568215137566528 -0.0014790467663988354 0.00026031148262028623
 0.00028951006317297964 -0.0014757985268526595 0.0014757985268526578 0.0075229899368270204 0.0075229899368270204 0.0014757985268526578 -0.0014757985268526595 0.00028951006317297964
 0.00026031148262028677 -0.0014790467663988354 0.0015682151375665287 0.007589101370497107 0.0074551478465380685 0.0013843590894052264 -0.0014711744816370172 0.00031808632140863265
 0.00023051604624772361 -0.0014808969575718328 0.0016615734182106638 0.0076534499653632005 0.0073856080868180841 0.0012939316188230693 -0.0014651975810648131 0.00034601540317390038
 0.00020014981701010665 -0.0014813275820052341 0.0017558371738091117 0.0077160043631082182 0.0073144044305334327 0.0012045501813392904 -0.0014578914659454378 0.00037327308215050789
 0.00016923943804758915 -0.0014803178620024773 0.0018509695363027917 0.0077767340476774909 0.0072415714164584324 0.0011162480986717611 -0.0014492804500986166 0.00039983577494302432
 0.00013781211603621063 -0.0014778477764631173 0.0019469329835548621 0.0078356093631903115 0.0071671443290710693 0.0010290579313619586 -0.0014393895025061275 0.00042568055575482931
 0.00010589560417054755 -0.0014738980763922467 0.0020436893587941086 0.0078926015313571258 0.0070911591779279862 0.00094301146261119761 -0.0014282442291129139 0.00045078517064419212
 7.3518184787906503e-05 -0.0014684502999827561 0.0021411998904853702 0.0079476826683911195 0.0070136526766319558 0.00085813968262303899 -0.0014158708542892596 0.00047512805135262149
 4.0708651643715717e-05 -0.0014614867872603239 0.0022394252126156974 0.0080008258014033096 0.0069346622214053371 0.0007744727734602672 -0.001402296201965881 0.00049868832869787443
 7.4962918479772739e-06 -0.0014529906942812615 0.0023383253853846769 0.0080520048842705298 0.0068542258692832255 0.00069204009442451106 -0.0013875476764539341 0.00052144584552427098
 -2.6089132527142825e-05 -0.0014429460068735749 0.0024378599162870494 0.0081011948129660685 0.0067723823159402336 0.00061087016796623392 -0.001371653242962086 0.00054338116920321644
 -6.0017403158332447e-05 -0.0014313375539118521 0.0025379877815754773 0.008148371440343043 0.0066891708731650944 0.00053099066613244462 -0.001354641407822947 0.00056447560367706791
 -9.4257864490291461e-05 -0.0014181510201168143 0.0026386674480910525 0.008193511590360962 0.0066046314459974531 0.00045242839755916262 -0.0013365411984412857 0.00058471120103975604
 -0.00012877944305238339 -0.0014033729583706573 0.0027398568954488645 0.0082365930717462326 0.0065188045095414242 0.00037520929501527397 -0.0013173821429765828 0.00060407077264782469
 -0.00016355066706195531 -0.0013869908015395412 0.0028415136385657024 0.0082775946910777966 0.0064317310854706987 0.00029935840350407716 -0.0012971942497725913 0.00062253789975580832
 -0.00019853968630330874 -0.0013689928737948688 0.0029435947505167112 0.008316496265289422 0.0063434527182401378 0.00022489986892844241 -0.0012760079865466855 0.00064009694367014533
 -0.00023371429227113703 -0.0013493684014252694 0.003046056885707569 0.0083532786335804993 0.0062540114510189855 0.00015185692732515559 -0.0012538542593518854 0.00065673305541607912
 -0.00026904193856709365 -0.0013281075231314859 0.0031488563033485648 0.0083879236687276759 0.0061634498013609764 8.0251894673617676e-05 -0.0012307643913245319 0.00067243218491227488
 -0.00030448976153795576 -0.0013052012997966283 0.0032519488912166662 0.0084204142877899492 0.0060718107366267574 1.0106157283745667e-05 -0.0012067701012306873 0.0006871810896481494
 -0.00034002460114373556 -0.0012806417237245891 0.0033552901896915207 0.0084507344622002933 0.0059791376491742125 -5.8559837232503289e-05 -0.0011819034818243955 0.00070096734285919236
 -0.0003756130220439023 -0.0012544217273396715 0.0034588354160510737 0.0084788692272372498 0.0058854743313323547 -0.00012572658840189019 -0.0011561969780310394 0.00071377934119582159
 -0.00041122133488975441 -0.0012265351913408177 0.003562539489012315 0.0085048046908703274 0.0057908649501746279 -0.00019137555073924775 -0.0011296833649690604 0.00072560631188160556
 -0.00044681561781084668 -0.0011969769523041075 0.003666357053502484 0.0085285280419735085 0.0056953540221075126 -0.00025548914100210693 -0.0011023957258233989 0.00073643831935694981
 -0.00048236173808321038 -0.0011657428097275285 0.0037702425056458603 0.0085500275579014472 0.0055989863872904378 -0.0003180507448476489 -0.0010743674295840208 0.00074626627140465872
 -0.00051782537396702398 -0.0011328295325123388 0.0038741500179511139 0.008569292611423503 0.0055018071839031384 -0.00037904472288941915 -0.0010456321086629932 0.00075508192475401545
 -0.00055317203670123601 -0.001098234864875639 0.0039780335646840293 0.0085863136770110652 0.0054038618222765605 -0.00043845641615160346 -0.0010162236364035376 0.00076287789016035723
 -0.0005883670926425345 -0.0010619575316891433 0.0040818469474102545 0.0086010823364740842 0.005305195958903608 -0.00049627215091906877 -0.00098617610449458449 0.00076964763695738098
 -0.00062337578553595704 -0.0010239972432394273 0.0041855438206925997 0.0086135912839431471 0.0052058554703459598 -0.00055247924298172484 -0.00095552380030431306 0.00077538549707971307
 -0.00065816325890433614 -0.00098435469940530451 0.0042890777179272754 0.0086238343301938553 0.0051058864270533055 -0.00060706600127214934 -0.00092430118414620652 0.00078008666855355555
 -0.00069269457854364701 -0.00094303159324828751 0.0043924020773033158 0.0086318064063106922 0.005005335067111343 -0.00066002173089579268 -0.00089254286649114909 0.00078374721845351982
 -0.00072693475511129266 -0.0009000306140124687 0.0044954702678693869 0.008637503566687979 0.0049042477699348915 -0.00071133673555346289 -0.00086028358513907575 0.00078636408532404103
 -0.000760848766794219 -0.00085535544953048459 0.004598235615691974 0.0086409229913659829 0.0048026710299225051 -0.00076100231935614026 -0.00082755818236368637 0.00078793508106406347


